project/verilog_tutorials/project0/04_shift_register/vcd/shift_reg.vcd
$date
	Fri Jul  5 17:52:36 2024
$end
$version
	Icarus Verilog
$end
$timescale
	1s
$end
$scope module shift_reg_tb $end
$var wire 1 ! shift_Sout $end
$var wire 8 " shift_Q [7:0] $end
$var reg 8 # shift_D [7:0] $end
$var reg 1 $ shift_Sin $end
$var reg 1 % shift_clk $end
$var reg 1 & shift_load $end
$var reg 256 ' vcd_file [255:0] $end
$var integer 32 ( i [31:0] $end
$scope module u_shift_reg $end
$var wire 8 ) shift_D [7:0] $end
$var wire 1 $ shift_Sin $end
$var wire 1 % shift_clk $end
$var wire 1 & shift_load $end
$var wire 1 ! shift_Sout $end
$var wire 8 * shift_Q [7:0] $end
$var wire 8 + mux_out [7:0] $end
$scope module u_ff0 $end
$var wire 1 , ff_Sin $end
$var wire 1 % ff_clk $end
$var reg 1 - ff_out $end
$upscope $end
$scope module u_ff1 $end
$var wire 1 . ff_Sin $end
$var wire 1 % ff_clk $end
$var reg 1 / ff_out $end
$upscope $end
$scope module u_ff2 $end
$var wire 1 0 ff_Sin $end
$var wire 1 % ff_clk $end
$var reg 1 1 ff_out $end
$upscope $end
$scope module u_ff3 $end
$var wire 1 2 ff_Sin $end
$var wire 1 % ff_clk $end
$var reg 1 3 ff_out $end
$upscope $end
$scope module u_ff4 $end
$var wire 1 4 ff_Sin $end
$var wire 1 % ff_clk $end
$var reg 1 5 ff_out $end
$upscope $end
$scope module u_ff5 $end
$var wire 1 6 ff_Sin $end
$var wire 1 % ff_clk $end
$var reg 1 7 ff_out $end
$upscope $end
$scope module u_ff6 $end
$var wire 1 8 ff_Sin $end
$var wire 1 % ff_clk $end
$var reg 1 9 ff_out $end
$upscope $end
$scope module u_ff7 $end
$var wire 1 : ff_Sin $end
$var wire 1 % ff_clk $end
$var reg 1 ; ff_out $end
$upscope $end
$scope module u_mux0 $end
$var wire 1 < mux_D $end
$var wire 1 $ mux_Sin $end
$var wire 1 & mux_load $end
$var wire 1 = mux_out $end
$upscope $end
$scope module u_mux1 $end
$var wire 1 > mux_D $end
$var wire 1 ? mux_Sin $end
$var wire 1 & mux_load $end
$var wire 1 @ mux_out $end
$upscope $end
$scope module u_mux2 $end
$var wire 1 A mux_D $end
$var wire 1 B mux_Sin $end
$var wire 1 & mux_load $end
$var wire 1 C mux_out $end
$upscope $end
$scope module u_mux3 $end
$var wire 1 D mux_D $end
$var wire 1 E mux_Sin $end
$var wire 1 & mux_load $end
$var wire 1 F mux_out $end
$upscope $end
$scope module u_mux4 $end
$var wire 1 G mux_D $end
$var wire 1 H mux_Sin $end
$var wire 1 & mux_load $end
$var wire 1 I mux_out $end
$upscope $end
$scope module u_mux5 $end
$var wire 1 J mux_D $end
$var wire 1 K mux_Sin $end
$var wire 1 & mux_load $end
$var wire 1 L mux_out $end
$upscope $end
$scope module u_mux6 $end
$var wire 1 M mux_D $end
$var wire 1 N mux_Sin $end
$var wire 1 & mux_load $end
$var wire 1 O mux_out $end
$upscope $end
$scope module u_mux7 $end
$var wire 1 P mux_D $end
$var wire 1 Q mux_Sin $end
$var wire 1 & mux_load $end
$var wire 1 R mux_out $end
$upscope $end
$upscope $end
$scope task PtoS $end
$upscope $end
$scope task StoP $end
$upscope $end
$scope task init $end
$upscope $end
$upscope $end
$enddefinitions $end
#0
$dumpvars
xR
xQ
0P
xO
xN
0M
xL
xK
0J
xI
xH
0G
xF
xE
0D
xC
xB
0A
x@
x?
0>
0=
0<
x;
x:
x9
x8
x7
x6
x5
x4
x3
x2
x1
x0
x/
x.
x-
0,
bx0 +
bx *
b0 )
b0 (
b101110001011110111011001100011011001000010111101110011011010000110100101100110011101000101111101110010011001010110011100101110011101100110001101100100 '
0&
0%
0$
b0 #
bx "
x!
$end
#10
0?
bx0 "
bx0 *
0-
0.
10
02
04
16
08
0:
0@
1C
0F
0I
1L
0O
b100100 +
0R
1A
1J
1&
b100100 #
b100100 )
1%
#20
0%
#30
0!
0Q
1N
0K
0H
1E
0B
0;
09
17
05
03
11
b100100 "
b100100 *
0/
00
12
04
06
18
0:
0C
1F
0I
0L
1O
b1001000 +
0R
0&
1%
#40
0%
#50
02
14
08
1:
0F
1I
0O
b10010000 +
1R
0E
1H
0N
1Q
01
13
07
b1001000 "
b1001000 *
19
1%
#60
0%
#70
0:
16
04
0R
1L
b100000 +
0I
1!
0Q
1K
0H
1;
09
15
b10010000 "
b10010000 *
03
1%
#80
0%
#90
06
18
0L
b1000000 +
1O
0K
1N
0!
05
17
b100000 "
b100000 *
0;
1%
#100
0%
#110
1:
08
1R
b10000000 +
0O
1Q
0N
19
b1000000 "
b1000000 *
07
1%
#120
0%
#130
0:
b0 +
0R
0Q
1!
09
b10000000 "
b10000000 *
1;
1%
#140
0%
#150
0!
b0 "
b0 *
0;
1%
#160
0%
#170
1%
#180
0%
#190
1,
b1 +
1=
0A
0J
1$
b0 #
b0 )
1%
#200
0%
#210
1.
1@
1?
b1 "
b1 *
1-
0,
b10 +
0=
0$
1%
#220
0%
#230
10
0.
1C
b100 +
0@
1B
0?
1/
b10 "
b10 *
0-
1%
#240
0%
#250
00
12
0C
b1000 +
1F
0B
1E
0/
b100 "
b100 *
11
1%
#260
0%
#270
14
02
1I
0F
1H
0E
13
b1000 "
b1000 *
01
1,
b10001 +
1=
1$
1%
#280
0%
#290
1.
04
16
1@
0I
b100011 +
1L
1?
0H
1K
1-
03
b10001 "
b10001 *
15
1%
#300
0%
#310
18
06
10
1O
0L
b1000111 +
1C
1N
0K
1B
17
05
b100011 "
b100011 *
1/
1%
#320
0%
#330
12
08
1:
1F
0O
b10001111 +
1R
1E
0N
1Q
11
07
b1000111 "
b1000111 *
19
1%
#340
0%
#350
0:
14
0R
b11111 +
1I
1!
0Q
1H
1;
09
b10001111 "
b10001111 *
13
1%
#360
0%
#370
16
1L
1K
0!
15
b11111 "
b11111 *
0;
0,
b111110 +
0=
0$
b1 (
0%
#380
1N
0?
17
b111110 "
b111110 *
0-
1,
0.
00
02
04
06
1:
1=
0@
0C
0F
0I
0L
b10000001 +
1R
1<
1P
1&
b10000001 #
b10000001 )
1%
#390
0%
#400
1.
1@
1?
0B
0E
0H
0K
0N
1!
1-
0/
01
03
05
07
b10000001 "
b10000001 *
1;
0,
00
02
04
06
08
0:
0=
0C
0F
0I
0L
0O
b10 +
0R
0&
1%
#410
0%
#420
10
0.
1C
b100 +
0@
0!
1B
0?
0;
1/
b10 "
b10 *
0-
1%
#430
0%
#440
00
12
0C
b1000 +
1F
0B
1E
0/
b100 "
b100 *
11
1%
#450
0%
#460
14
02
1I
b10000 +
0F
1H
0E
13
b1000 "
b1000 *
01
1%
#470
0%
#480
04
16
0I
b100000 +
1L
0H
1K
03
b10000 "
b10000 *
15
1%
#490
0%
#500
18
06
1O
b1000000 +
0L
1N
0K
17
b100000 "
b100000 *
05
1%
#510
0%
#520
08
1:
0O
b10000000 +
1R
0N
1Q
07
b1000000 "
b1000000 *
19
1%
#530
0%
#540
0:
b0 +
0R
1!
0Q
1;
b10000000 "
b10000000 *
09
1%
#550
0%
#560
0!
b0 "
b0 *
0;
1,
b1 +
1=
0<
0P
1$
b0 #
b0 )
1%
#570
0%
#580
1.
1@
1?
b1 "
b1 *
1-
0,
b10 +
0=
0$
1%
#590
0%
#600
0.
10
0@
b100 +
1C
0?
1B
0-
b10 "
b10 *
1/
1%
#610
0%
#620
12
00
1F
b1000 +
0C
1E
0B
11
b100 "
b100 *
0/
1%
#630
0%
#640
02
14
0F
1I
0E
1H
01
b1000 "
b1000 *
13
1,
b10001 +
1=
1$
1%
#650
0%
#660
16
04
1.
1L
0I
b100011 +
1@
1K
0H
1?
15
03
b10001 "
b10001 *
1-
1%
#670
0%
#680
10
06
18
1C
0L
b1000111 +
1O
1B
0K
1N
1/
05
b100011 "
b100011 *
17
1%
#690
0%
#700
1:
08
12
1R
0O
b10001111 +
1F
1Q
0N
1E
19
07
b1000111 "
b1000111 *
11
1%
#710
0%
#720
14
0:
1I
b11111 +
0R
1H
0Q
1!
13
09
b10001111 "
b10001111 *
1;
1%
#730
0%
#740
16
1L
0!
1K
0;
b11111 "
b11111 *
15
0,
b111110 +
0=
0$
b10 (
0%
#750
0?
1N
0-
b111110 "
b111110 *
17
1,
0.
00
04
06
1=
0@
0C
0I
b1001 +
0L
1<
1D
1&
b1001 #
b1001 )
1%
#760
0%
#770
02
1.
0F
1@
0N
0K
0E
0B
1?
07
05
01
0/
b1001 "
b1001 *
1-
0,
00
14
06
08
0=
0C
1I
0L
b10010 +
0O
0&
1%
#780
0%
#790
0.
10
04
16
0@
1C
0I
b100100 +
1L
0?
1B
0H
1K
0-
1/
03
b10010 "
b10010 *
15
1%
#800
0%
#810
18
06
12
00
1O
0L
1F
b1001000 +
0C
1N
0K
1E
0B
17
05
11
b100100 "
b100100 *
0/
1%
#820
0%
#830
02
14
08
1:
0F
1I
0O
b10010000 +
1R
0E
1H
0N
1Q
01
13
07
b1001000 "
b1001000 *
19
1%
#840
0%
#850
0:
16
04
0R
1L
b100000 +
0I
1!
0Q
1K
0H
1;
09
15
b10010000 "
b10010000 *
03
1%
#860
0%
#870
06
18
0L
b1000000 +
1O
0K
1N
0!
05
17
b100000 "
b100000 *
0;
1%
#880
0%
#890
1:
08
1R
b10000000 +
0O
1Q
0N
19
b1000000 "
b1000000 *
07
1%
#900
0%
#910
0:
b0 +
0R
0Q
1!
09
b10000000 "
b10000000 *
1;
1%
#920
0%
#930
0!
b0 "
b0 *
0;
1,
b1 +
1=
0<
0D
1$
b0 #
b0 )
1%
#940
0%
#950
1.
1@
1?
b1 "
b1 *
1-
0,
b10 +
0=
0$
1%
#960
0%
#970
10
0.
1C
b100 +
0@
1B
0?
1/
b10 "
b10 *
0-
1%
#980
0%
#990
00
12
0C
b1000 +
1F
0B
1E
0/
b100 "
b100 *
11
1%
#1000
0%
#1010
14
02
1I
0F
1H
0E
13
b1000 "
b1000 *
01
1,
b10001 +
1=
1$
1%
#1020
0%
#1030
1.
04
16
1@
0I
b100011 +
1L
1?
0H
1K
1-
03
b10001 "
b10001 *
15
1%
#1040
0%
#1050
18
06
10
1O
0L
b1000111 +
1C
1N
0K
1B
17
05
b100011 "
b100011 *
1/
1%
#1060
0%
#1070
12
08
1:
1F
0O
b10001111 +
1R
1E
0N
1Q
11
07
b1000111 "
b1000111 *
19
1%
#1080
0%
#1090
0:
14
0R
b11111 +
1I
1!
0Q
1H
1;
09
b10001111 "
b10001111 *
13
1%
#1100
0%
#1110
16
1L
1K
0!
15
b11111 "
b11111 *
0;
0,
b111110 +
0=
0$
b11 (
0%
#1120
1N
0?
17
b111110 "
b111110 *
0-
1,
00
02
04
18
1=
0C
0F
0I
b1100011 +
1O
1<
1>
1J
1M
1&
b1100011 #
b1100011 )
1%
#1130
0%
#1140
06
1:
0L
1R
1?
0E
0H
0K
1Q
1-
01
03
05
b1100011 "
b1100011 *
19
0,
1.
10
02
04
0=
1@
1C
0F
b11000110 +
0I
0&
1%
#1150
0%
#1160
08
12
0.
0O
1F
b10001100 +
0@
1!
0N
1E
0?
1;
07
11
b11000110 "
b11000110 *
0-
1%
#1170
0%
#1180
00
14
0:
0C
1I
b11000 +
0R
0B
1H
0Q
0/
13
b10001100 "
b10001100 *
09
1%
#1190
0%
#1200
16
02
1L
b110000 +
0F
0!
1K
0E
0;
15
b11000 "
b11000 *
01
1%
#1210
0%
#1220
04
18
0I
b1100000 +
1O
0H
1N
03
b110000 "
b110000 *
17
1%
#1230
0%
#1240
1:
06
1R
b11000000 +
0L
1Q
0K
19
b1100000 "
b1100000 *
05
1%
#1250
0%
#1260
08
b10000000 +
0O
0N
1!
07
b11000000 "
b11000000 *
1;
1%
#1270
0%
#1280
0:
b0 +
0R
0Q
b10000000 "
b10000000 *
09
1%
#1290
0%
#1300
0!
b0 "
b0 *
0;
1,
b1 +
1=
0<
0>
0J
0M
1$
b0 #
b0 )
1%
#1310
0%
#1320
1.
1@
1?
b1 "
b1 *
1-
0,
b10 +
0=
0$
1%
#1330
0%
#1340
0.
10
0@
b100 +
1C
0?
1B
0-
b10 "
b10 *
1/
1%
#1350
0%
#1360
12
00
1F
b1000 +
0C
1E
0B
11
b100 "
b100 *
0/
1%
#1370
0%
#1380
02
14
0F
1I
0E
1H
01
b1000 "
b1000 *
13
1,
b10001 +
1=
1$
1%
#1390
0%
#1400
16
04
1.
1L
0I
b100011 +
1@
1K
0H
1?
15
03
b10001 "
b10001 *
1-
1%
#1410
0%
#1420
10
06
18
1C
0L
b1000111 +
1O
1B
0K
1N
1/
05
b100011 "
b100011 *
17
1%
#1430
0%
#1440
1:
08
12
1R
0O
b10001111 +
1F
1Q
0N
1E
19
07
b1000111 "
b1000111 *
11
1%
#1450
0%
#1460
14
0:
1I
b11111 +
0R
1H
0Q
1!
13
09
b10001111 "
b10001111 *
1;
1%
#1470
0%
#1480
16
1L
0!
1K
0;
b11111 "
b11111 *
15
0,
b111110 +
0=
0$
b100 (
0%
#1490
0?
1N
0-
b111110 "
b111110 *
17
1,
0.
04
06
1=
0@
0I
b1101 +
0L
1<
1A
1D
1&
b1101 #
b1101 )
1%
#1500
0%
#1510
00
1.
0C
1@
0N
0K
0B
1?
07
05
0/
b1101 "
b1101 *
1-
0,
14
06
08
0=
1I
0L
b11010 +
0O
0&
1%
#1520
0%
#1530
0.
10
02
16
0@
1C
0F
b110100 +
1L
0?
1B
0E
1K
0-
1/
01
b11010 "
b11010 *
15
1%
#1540
0%
#1550
18
04
12
00
1O
0I
1F
b1101000 +
0C
1N
0H
1E
0B
17
03
11
b110100 "
b110100 *
0/
1%
#1560
0%
#1570
02
14
06
1:
0F
1I
0L
b11010000 +
1R
0E
1H
0K
1Q
01
13
05
b1101000 "
b1101000 *
19
1%
#1580
0%
#1590
08
16
04
0O
1L
b10100000 +
0I
1!
0N
1K
0H
1;
07
15
b11010000 "
b11010000 *
03
1%
#1600
0%
#1610
06
18
0:
0L
1O
b1000000 +
0R
0K
1N
0Q
05
17
b10100000 "
b10100000 *
09
1%
#1620
0%
#1630
1:
08
1R
b10000000 +
0O
0!
1Q
0N
0;
19
b1000000 "
b1000000 *
07
1%
#1640
0%
#1650
0:
b0 +
0R
0Q
1!
09
b10000000 "
b10000000 *
1;
1%
#1660
0%
#1670
0!
b0 "
b0 *
0;
1,
b1 +
1=
0<
0A
0D
1$
b0 #
b0 )
1%
#1680
0%
#1690
1.
1@
1?
b1 "
b1 *
1-
0,
b10 +
0=
0$
1%
#1700
0%
#1710
10
0.
1C
b100 +
0@
1B
0?
1/
b10 "
b10 *
0-
1%
#1720
0%
#1730
00
12
0C
b1000 +
1F
0B
1E
0/
b100 "
b100 *
11
1%
#1740
0%
#1750
14
02
1I
0F
1H
0E
13
b1000 "
b1000 *
01
1,
b10001 +
1=
1$
1%
#1760
0%
#1770
1.
04
16
1@
0I
b100011 +
1L
1?
0H
1K
1-
03
b10001 "
b10001 *
15
1%
#1780
0%
#1790
18
06
10
1O
0L
b1000111 +
1C
1N
0K
1B
17
05
b100011 "
b100011 *
1/
1%
#1800
0%
#1810
12
08
1:
1F
0O
b10001111 +
1R
1E
0N
1Q
11
07
b1000111 "
b1000111 *
19
1%
#1820
0%
#1830
0:
14
0R
b11111 +
1I
1!
0Q
1H
1;
09
b10001111 "
b10001111 *
13
1%
#1840
0%
#1850
16
b111111 +
1L
1K
0!
15
b11111 "
b11111 *
0;
b101 (
1%
